{
    "name": "SlackAlerts",
    "alias": "slackalerts",
    "description": "",
    "keywords": [],
    "active": 1,
    "order": 0,
    "providers": [
        "Modules\\SlackAlerts\\Providers\\SlackAlertsServiceProvider"
    ],
    "aliases":{},
    "files": [
        "start.php"
    ]
}